{"_id":{"$oid":"5cc5dbfafef3617ed32ed5c9"},"status":"AVAILABLE","certification":{"year":"2010","color":"WHITE","transmittion":"AT","distance":{"$numberInt":"123123"},"taxDate":{"$date":{"$numberLong":"1558310400000"}},"stnkExpiredDate":{"$date":{"$numberLong":"1589932800000"}},"engine":{"$numberInt":"1200"},"fuel":"FUEL"},"location":{"type":"Point","coordinates":[{"$numberDouble":"110.82865"},{"$numberDouble":"-7.5622537"}]},"tags":[{"$oid":"5cc5dac4fef3617ed32ed5b1"},{"$oid":"5cc5dabcfef3617ed32ed5af"}],"periodPrice":[{"_id":{"$oid":"5cc5dbfafef3617ed32ed5cb"},"startDate":{"$date":{"$numberLong":"1556323200000"}},"endDate":{"$date":{"$numberLong":"1556582400000"}},"price":{"$numberInt":"230000000"}},{"_id":{"$oid":"5cc5dbfafef3617ed32ed5ca"},"startDate":{"$date":{"$numberLong":"1556668800000"}},"endDate":{"$date":{"$numberLong":"1557360000000"}},"price":{"$numberInt":"210000000"}},{"_id":{"$oid":"5ccc5422f3daab0be6258efd"},"startDate":null,"endDate":null,"price":{"$numberInt":"250000000"}}],"photos":[{"_id":{"$oid":"5cc5dbfafef3617ed32ed5cc"},"image":"https://idealtesting.s3.ap-southeast-1.amazonaws.com/vehicles/1556470778377_mitsubishi_1.jpg"}],"isAutoNegotiation":true,"bottomPrice":{"$numberInt":"200000000"},"salePrice":{"$numberInt":"450000000"},"tipe":"SECOND","year":"2014","transmittion":"AT","machine":"Mitsubishi ABC","kilometer":{"$numberInt":"10000"},"passenger":{"$numberInt":"5"},"color":"BLACK","description":"Ini description","brand":{"$oid":"5cc5dae3fef3617ed32ed5b3"},"varian":{"$oid":"5cc5db18fef3617ed32ed5b6"},"model":{"$oid":"5cc5db2bfef3617ed32ed5b8"},"title":"2014 Mitsubishi Outlander EX","user":{"$oid":"5cd2366ed0c1a2567852548d"},"viewCount":{"$numberInt":"174"},"__v":{"$numberInt":"0"}}
{"_id":{"$oid":"5ccc5699e1007422d9572fb0"},"status":"AVAILABLE","certification":{"year":"2012","color":"YELLOW","transmittion":"AT","distance":{"$numberInt":"123123"},"taxDate":{"$date":{"$numberLong":"1558310400000"}},"stnkExpiredDate":{"$date":{"$numberLong":"1589932800000"}},"engine":{"$numberInt":"1200"},"fuel":"DIESEL"},"location":{"type":"Point","coordinates":[{"$numberDouble":"110.82865"},{"$numberDouble":"-7.5622537"}]},"tags":[{"$oid":"5cc5dacefef3617ed32ed5b2"},{"$oid":"5cc5dabcfef3617ed32ed5af"}],"periodPrice":[{"_id":{"$oid":"5ccc5699e1007422d9572fb3"},"startDate":{"$date":{"$numberLong":"1556323200000"}},"endDate":{"$date":{"$numberLong":"1556582400000"}},"price":{"$numberInt":"134000000"}},{"_id":{"$oid":"5ccc5699e1007422d9572fb2"},"startDate":{"$date":{"$numberLong":"1556668800000"}},"endDate":{"$date":{"$numberLong":"1557360000000"}},"price":{"$numberInt":"115000000"}},{"_id":{"$oid":"5ccc5699e1007422d9572fb1"},"startDate":null,"endDate":null,"price":{"$numberInt":"155000000"}}],"photos":[{"_id":{"$oid":"5ccc5699e1007422d9572fb4"},"image":"https://idealtesting.s3.ap-southeast-1.amazonaws.com/vehicles/1556895384704_bedroom.jpg"}],"isAutoNegotiation":true,"bottomPrice":{"$numberInt":"150000000"},"salePrice":{"$numberInt":"155000000"},"tipe":"SECOND","year":"2015","transmittion":"AT","machine":"Mitsubishi CDR","kilometer":{"$numberInt":"10000"},"passenger":{"$numberInt":"8"},"color":"GREEN","description":"Ini description","brand":{"$oid":"5cc5dae3fef3617ed32ed5b3"},"varian":{"$oid":"5cc5db1dfef3617ed32ed5b7"},"model":{"$oid":"5cc5db35fef3617ed32ed5ba"},"title":"2015 Mitsubishi Pajero LUX","user":{"$oid":"5cd2366ed0c1a2567852548d"},"viewCount":{"$numberInt":"30"},"__v":{"$numberInt":"0"}}
{"_id":{"$oid":"5cd8eb0ffd3704180ab644a8"},"status":"AVAILABLE","certification":{"year":"2015","color":"WHITE","transmittion":"MT","distance":{"$numberInt":"289374"},"taxDate":{"$date":{"$numberLong":"1558310400000"}},"stnkExpiredDate":{"$date":{"$numberLong":"1589932800000"}},"engine":{"$numberInt":"1200"},"fuel":"DIESEL"},"location":{"type":"Point","coordinates":[{"$numberDouble":"110.82865"},{"$numberDouble":"-7.5622537"}]},"tags":[{"$oid":"5cc5dabcfef3617ed32ed5af"}],"periodPrice":[{"_id":{"$oid":"5cd8eb0ffd3704180ab644aa"},"startDate":{"$date":{"$numberLong":"1557446400000"}},"endDate":{"$date":{"$numberLong":"1557705600000"}},"price":{"$numberInt":"110000000"}},{"_id":{"$oid":"5cd8eb0ffd3704180ab644a9"},"startDate":null,"endDate":null,"price":{"$numberInt":"114000000"}}],"photos":[{"_id":{"$oid":"5cd8eb0ffd3704180ab644ab"},"image":"https://idealtesting.s3.ap-southeast-1.amazonaws.com/vehicles/1557719823617_mitsubishi-pajero-sport-front-angle-low-view-112362.jpg"}],"isAutoNegotiation":false,"bottomPrice":{"$numberInt":"100000000"},"salePrice":{"$numberInt":"114000000"},"tipe":"NEW","year":"2017","transmittion":"MT","machine":"Toyota Super","kilometer":{"$numberInt":"12500"},"passenger":{"$numberInt":"6"},"viewCount":{"$numberInt":"4"},"color":"WHITE","description":"Ini description biar keren agak panjangan dikit","brand":{"$oid":"5cc5daeffef3617ed32ed5b4"},"varian":{"$oid":"5cc5db35fef3617ed32ed5ba"},"model":{"$oid":"5cc5db1dfef3617ed32ed5b7"},"title":"2017 Toyota LUX Pajero","user":{"$oid":"5cd2366ed0c1a2567852548d"},"__v":{"$numberInt":"0"}}
{"_id":{"$oid":"5cd8ec38fd3704180ab644ac"},"status":"AVAILABLE","certification":{"year":"2015","color":"WHITE","transmittion":"MT","distance":{"$numberInt":"289374"},"taxDate":{"$date":{"$numberLong":"1558310400000"}},"stnkExpiredDate":{"$date":{"$numberLong":"1589932800000"}},"engine":{"$numberInt":"1200"},"fuel":"DIESEL"},"location":{"type":"Point","coordinates":[{"$numberDouble":"110.82865"},{"$numberDouble":"-7.5622537"}]},"tags":[{"$oid":"5cc5dabcfef3617ed32ed5af"},{"$oid":"5cc5dac4fef3617ed32ed5b1"}],"periodPrice":[{"_id":{"$oid":"5cd8ec38fd3704180ab644ae"},"startDate":{"$date":{"$numberLong":"1557446400000"}},"endDate":{"$date":{"$numberLong":"1557705600000"}},"price":{"$numberInt":"110000000"}},{"_id":{"$oid":"5cd8ec38fd3704180ab644ad"},"startDate":null,"endDate":null,"price":{"$numberInt":"114000000"}}],"photos":[{"_id":{"$oid":"5cd8ec38fd3704180ab644af"},"image":"https://idealtesting.s3.ap-southeast-1.amazonaws.com/vehicles/1557720120571_mitsubishi-xpander-2018-white-pearl-5aaf67af21567.jpg"},{"_id":{"$oid":"5ce048a6bbb54d0e846f45e2"},"image":"https://idealtesting.s3.ap-southeast-1.amazonaws.com/vehicles/1558202533937_IMG-20190518-WA0005.jpg"},{"_id":{"$oid":"5ce210621560f3380291bbe1"},"image":"https://idealtesting.s3.ap-southeast-1.amazonaws.com/vehicles/1558319195729_IMG-20190520-WA0013.jpg"},{"_id":{"$oid":"5ce210621560f3380291bbe8"},"image":"https://idealtesting.s3.ap-southeast-1.amazonaws.com/vehicles/1558319196602_IMG-20190520-WA0017.jpg"}],"isAutoNegotiation":false,"bottomPrice":{"$numberInt":"100000000"},"salePrice":{"$numberInt":"114000000"},"tipe":"NEW","year":"2017","transmittion":"MT","machine":"Toyota Super","kilometer":{"$numberInt":"12500"},"passenger":{"$numberInt":"6"},"viewCount":{"$numberInt":"19"},"color":"WHITE","description":"Ini description biar keren agak panjangan dikit","brand":{"$oid":"5cc5dae3fef3617ed32ed5b3"},"varian":{"$oid":"5cc5daeffef3617ed32ed5b4"},"model":{"$oid":"5cc5db2bfef3617ed32ed5b8"},"title":"2017 Mitsubishi Toyota EX","user":{"$oid":"5cd2366ed0c1a2567852548d"},"__v":{"$numberInt":"0"}}
